\relax 
\providecommand\hyper@newdestlabel[2]{}
\providecommand\zref@newlabel[2]{}
\providecommand\HyperFirstAtBeginDocument{\AtBeginDocument}
\HyperFirstAtBeginDocument{\ifx\hyper@anchor\@undefined
\global\let\oldcontentsline\contentsline
\gdef\contentsline#1#2#3#4{\oldcontentsline{#1}{#2}{#3}}
\global\let\oldnewlabel\newlabel
\gdef\newlabel#1#2{\newlabelxx{#1}#2}
\gdef\newlabelxx#1#2#3#4#5#6{\oldnewlabel{#1}{{#2}{#3}}}
\AtEndDocument{\ifx\hyper@anchor\@undefined
\let\contentsline\oldcontentsline
\let\newlabel\oldnewlabel
\fi}
\fi}
\global\let\hyper@last\relax 
\gdef\HyperFirstAtBeginDocument#1{#1}
\providecommand\HyField@AuxAddToFields[1]{}
\providecommand\HyField@AuxAddToCoFields[2]{}
\bibstyle{biblatex}
\bibdata{doc2-blx,doc1}
\citation{biblatex-control}
\citation{elderlyAudio}
\@writefile{toc}{\boolfalse {citerequest}\boolfalse {citetracker}\boolfalse {pagetracker}\boolfalse {backtracker}\relax }
\@writefile{lof}{\boolfalse {citerequest}\boolfalse {citetracker}\boolfalse {pagetracker}\boolfalse {backtracker}\relax }
\@writefile{lot}{\boolfalse {citerequest}\boolfalse {citetracker}\boolfalse {pagetracker}\boolfalse {backtracker}\relax }
\@writefile{toc}{\defcounter {refsection}{0}\relax }\@writefile{toc}{\contentsline {section}{\numberline {1}C\IeC {\'\i }lov\IeC {\'e} po\IeC {\v z}adavky na aplikaci a jej\IeC {\'\i } rozhran\IeC {\'\i }}{1}{section.1}}
\@writefile{toc}{\defcounter {refsection}{0}\relax }\@writefile{toc}{\contentsline {subsection}{\numberline {1.1}Po\IeC {\v z}adavky na SUI}{1}{subsection.1.1}}
\@writefile{toc}{\defcounter {refsection}{0}\relax }\@writefile{toc}{\contentsline {subsection}{\numberline {1.2}Po\IeC {\v z}adavky na ovl\IeC {\'a}d\IeC {\'a}n\IeC {\'\i }}{1}{subsection.1.2}}
\citation{elderlyAudio}
\@writefile{toc}{\defcounter {refsection}{0}\relax }\@writefile{toc}{\contentsline {section}{\numberline {2}Studium c\IeC {\'\i }lov\IeC {\'e} skupiny a p\IeC {\v r}\IeC {\'\i }pady pou\IeC {\v z}it\IeC {\'\i }}{2}{section.2}}
\@writefile{toc}{\defcounter {refsection}{0}\relax }\@writefile{toc}{\contentsline {section}{\numberline {3}Existuj\IeC {\'\i }c\IeC {\'\i } \IeC {\v r}e\IeC {\v s}en\IeC {\'\i }}{2}{section.3}}
\@writefile{toc}{\defcounter {refsection}{0}\relax }\@writefile{toc}{\contentsline {section}{\numberline {4}N\IeC {\'a}vrh SUI}{2}{section.4}}
\citation{smash1}
\citation{smash2}
\citation{earconWiki}
\@writefile{toc}{\defcounter {refsection}{0}\relax }\@writefile{toc}{\contentsline {subsection}{\numberline {4.1}Specifika zvukov\IeC {\'e}ho u\IeC {\v z}ivatelsk\IeC {\'e}ho rozhran\IeC {\'\i }}{3}{subsection.4.1}}
\@writefile{toc}{\defcounter {refsection}{0}\relax }\@writefile{toc}{\contentsline {section}{\numberline {5}N\IeC {\'a}vrh a implementace back-endu}{3}{section.5}}
\citation{vyhodnoceni}
\citation{vyhodnoceni}
\@writefile{lof}{\defcounter {refsection}{0}\relax }\@writefile{lof}{\contentsline {figure}{\numberline {1}{\ignorespaces Rozhran\IeC {\'\i } back-endu.}}{4}{figure.1}}
\newlabel{fig:backend}{{1}{4}{Rozhraní back-endu}{figure.1}{}}
\@writefile{lot}{\defcounter {refsection}{0}\relax }\@writefile{lot}{\contentsline {table}{\numberline {1}{\ignorespaces Stavy robota}}{4}{table.1}}
\newlabel{my-label}{{1}{4}{Stavy robota}{table.1}{}}
\@writefile{toc}{\defcounter {refsection}{0}\relax }\@writefile{toc}{\contentsline {section}{\numberline {6}N\IeC {\'a}vrh u\IeC {\v z}ivatelsk\IeC {\'y}ch test\IeC {\r u}}{5}{section.6}}
\@writefile{toc}{\defcounter {refsection}{0}\relax }\@writefile{toc}{\contentsline {section}{\numberline {7}N\IeC {\'a}stroje a Tvorba SUI}{6}{section.7}}
\@writefile{lof}{\defcounter {refsection}{0}\relax }\@writefile{lof}{\contentsline {figure}{\numberline {2}{\ignorespaces Notov\IeC {\'y} z\IeC {\'a}pis slova "chyba".}}{6}{figure.2}}
\newlabel{fig:chyba}{{2}{6}{Notový zápis slova "chyba"}{figure.2}{}}
\@writefile{lof}{\defcounter {refsection}{0}\relax }\@writefile{lof}{\contentsline {figure}{\numberline {3}{\ignorespaces Notov\IeC {\'y} z\IeC {\'a}pis slova "jedu".}}{7}{figure.3}}
\newlabel{fig:jedu}{{3}{7}{Notový zápis slova "jedu"}{figure.3}{}}
\@writefile{lof}{\defcounter {refsection}{0}\relax }\@writefile{lof}{\contentsline {figure}{\numberline {4}{\ignorespaces Notov\IeC {\'y} z\IeC {\'a}pis slova "je to ono?".}}{8}{figure.4}}
\newlabel{fig:jetoono}{{4}{8}{Notový zápis slova "je to ono?"}{figure.4}{}}
\@writefile{lof}{\defcounter {refsection}{0}\relax }\@writefile{lof}{\contentsline {figure}{\numberline {5}{\ignorespaces Notov\IeC {\'y} z\IeC {\'a}pis slova "kde jsi?".}}{8}{figure.5}}
\newlabel{fig:kdejsi}{{5}{8}{Notový zápis slova "kde jsi?"}{figure.5}{}}
\@writefile{lof}{\defcounter {refsection}{0}\relax }\@writefile{lof}{\contentsline {figure}{\numberline {6}{\ignorespaces Notov\IeC {\'y} z\IeC {\'a}pis slova "tady to m\IeC {\'a}\IeC {\v s}".}}{9}{figure.6}}
\newlabel{fig:tady}{{6}{9}{Notový zápis slova "tady to máš"}{figure.6}{}}
\@writefile{toc}{\defcounter {refsection}{0}\relax }\@writefile{toc}{\contentsline {section}{\numberline {8}U\IeC {\v z}ivatelsk\IeC {\'e} testy a v\IeC {\'y}sledky}{9}{section.8}}
\@writefile{toc}{\defcounter {refsection}{0}\relax }\@writefile{toc}{\contentsline {section}{\numberline {9}T\IeC {\'y}mov\IeC {\'a} spolupr\IeC {\'a}ce}{10}{section.9}}
\@writefile{toc}{\defcounter {refsection}{0}\relax }\@writefile{toc}{\contentsline {section}{\numberline {10}Z\IeC {\'a}v\IeC {\v e}r}{11}{section.10}}
\@writefile{toc}{\defcounter {refsection}{0}\relax }\@writefile{toc}{\contentsline {section}{\numberline {A}Testovac\IeC {\'\i } protokol \IeC {\v c}. 1}{13}{appendix.A}}
\newlabel{App:Prot1}{{A}{13}{Testovací protokol č. 1}{appendix.A}{}}
\@writefile{toc}{\defcounter {refsection}{0}\relax }\@writefile{toc}{\contentsline {section}{\numberline {B}Testovac\IeC {\'\i } protokol \IeC {\v c}. 2}{14}{appendix.B}}
\newlabel{App:Prot2}{{B}{14}{Testovací protokol č. 2}{appendix.B}{}}
\@writefile{toc}{\defcounter {refsection}{0}\relax }\@writefile{toc}{\contentsline {section}{\numberline {C}Testovac\IeC {\'\i } dotazn\IeC {\'\i }k \IeC {\v c}. 1}{15}{appendix.C}}
\newlabel{App:Prot3}{{C}{15}{Testovací dotazník č. 1}{appendix.C}{}}
\@writefile{toc}{\defcounter {refsection}{0}\relax }\@writefile{toc}{\contentsline {section}{\numberline {D}Testovac\IeC {\'\i } dotazn\IeC {\'\i }k \IeC {\v c}. 2}{16}{appendix.D}}
\newlabel{App:Prot4}{{D}{16}{Testovací dotazník č. 2}{appendix.D}{}}
\@writefile{toc}{\defcounter {refsection}{0}\relax }\@writefile{toc}{\contentsline {section}{\numberline {A}Testovac\IeC {\'\i } protokol \IeC {\v c}. 1 - V\IeC {\'y}sledky 1}{17}{appendix.A}}
\newlabel{App:Prot1V}{{A}{17}{Testovací protokol č. 1 - Výsledky 1}{appendix.A}{}}
\@writefile{toc}{\defcounter {refsection}{0}\relax }\@writefile{toc}{\contentsline {section}{\numberline {A}Testovac\IeC {\'\i } protokol \IeC {\v c}. 1 - V\IeC {\'y}sledky 2}{18}{appendix.A}}
\newlabel{App:Prot1V}{{A}{18}{Testovací protokol č. 1 - Výsledky 2}{appendix.A}{}}
\@writefile{toc}{\defcounter {refsection}{0}\relax }\@writefile{toc}{\contentsline {section}{\numberline {A}Testovac\IeC {\'\i } protokol \IeC {\v c}. 1 - V\IeC {\'y}sledky 3}{19}{appendix.A}}
\newlabel{App:Prot1V}{{A}{19}{Testovací protokol č. 1 - Výsledky 3}{appendix.A}{}}
